<svg width="40" height="40" viewBox="0 0 40 40" fill="none" xmlns="http://www.w3.org/2000/svg">
<g opacity="0.8">
<path d="M21.6875 19.2891C21.6016 19.1328 21.4922 18.9844 21.3672 18.8594L19.9297 17.4375C19.7812 17.2891 19.6094 17.1641 19.4141 17.0781C18.7734 16.7969 18.0547 16.9453 17.5859 17.4141C17.0859 17.9063 16.1719 18.8047 14.5234 20.4375C11.3672 23.5625 6.85937 27.4375 4.21094 29.6719C3.64844 30.1484 3.60937 31 4.125 31.5234L7.1875 34.625C7.71094 35.1484 8.5625 35.1172 9.04688 34.5547C11.3437 31.8516 15.2578 27.3438 18.375 24.2578C19.9766 22.6797 20.875 21.7734 21.3828 21.2734C21.8906 20.7578 22.0312 19.9688 21.6875 19.2891ZM36.125 17.0391L33.4297 14.3672C33.3437 14.2812 33.2344 14.2422 33.1172 14.2422C33.0078 14.2422 32.8906 14.2812 32.8047 14.3672C32.6094 14.5625 32.3281 14.6641 32.0547 14.625C31.7031 14.5859 31.3281 14.4766 31.0859 14.2422C30.5391 13.7031 31.1719 12.6406 30.6875 11.9609C30.2031 11.2813 29.4297 10.4141 28.875 9.85938C28.3203 9.3125 26.1406 7.22656 22.4687 5.72656C21.1719 5.19531 19.9062 5 18.7734 5C16.7031 5 15.0703 5.66406 14.4922 6.19531C14.0625 6.59375 13.6172 7.29688 14.25 7.29688C14.3047 7.29688 14.3672 7.28906 14.4375 7.28125C14.7891 7.22656 15.4766 7.16406 16.2656 7.16406C17.4922 7.16406 18.9609 7.32813 19.75 7.95313C21.0234 8.97656 22.0781 10.3438 22.1641 12.1094C22.2266 13.4219 21.8984 14.3125 20.7031 15.6641C20.4844 15.9141 20.5 16.2891 20.7344 16.5156L22.2344 18.0156C22.4766 18.2578 22.8672 18.2578 23.1094 18.0234C24.2031 16.9609 24.8359 16.4453 25.5547 16.25C25.8672 16.1641 26.2109 16.125 26.5547 16.125C27.3125 16.125 28.0547 16.2969 28.3984 16.4844C28.4844 16.5313 28.5625 16.5938 28.6406 16.6719C29.1484 17.1875 29.1172 18.0313 28.6016 18.5391L28.4453 18.6875C28.2734 18.8594 28.2734 19.1328 28.4453 19.3047L31.1406 21.9766C31.2266 22.0625 31.3359 22.1016 31.4531 22.1016C31.5625 22.1016 31.6797 22.0625 31.7656 21.9766L36.125 17.6641C36.2891 17.4844 36.2891 17.2109 36.125 17.0391Z" fill="#0538A1"/>
</g>
</svg>
