<svg width="19" height="18" viewBox="0 0 19 18" fill="none" xmlns="http://www.w3.org/2000/svg">
<path d="M10.9217 16.7944L9.98025 17.7094C9.58163 18.0969 8.93706 18.0969 8.54268 17.7094L0.298962 9.70071C-0.0996541 9.31326 -0.0996541 8.68674 0.298962 8.30341L8.54268 0.290588C8.9413 -0.0968628 9.58587 -0.0968628 9.98025 0.290588L10.9217 1.20563C11.3245 1.59721 11.316 2.23609 10.9047 2.61942L5.79478 7.35127H17.9823C18.5463 7.35127 19 7.79231 19 8.34051V9.65949C19 10.2077 18.5463 10.6487 17.9823 10.6487H5.79478L10.9047 15.3806C11.3203 15.7639 11.3288 16.4028 10.9217 16.7944Z" fill="white"/>
</svg>
