<svg width="32" height="32" viewBox="0 0 32 32" fill="none" xmlns="http://www.w3.org/2000/svg">
<path d="M20.5714 14.2143C20.5714 13.8728 20.2701 13.5714 19.9286 13.5714H15.4286V9.07143C15.4286 8.72991 15.1272 8.42857 14.7857 8.42857H13.5C13.1585 8.42857 12.8571 8.72991 12.8571 9.07143V13.5714H8.35714C8.01563 13.5714 7.71429 13.8728 7.71429 14.2143V15.5C7.71429 15.8415 8.01563 16.1429 8.35714 16.1429H12.8571V20.6429C12.8571 20.9844 13.1585 21.2857 13.5 21.2857H14.7857C15.1272 21.2857 15.4286 20.9844 15.4286 20.6429V16.1429H19.9286C20.2701 16.1429 20.5714 15.8415 20.5714 15.5V14.2143ZM23.1429 14.8571C23.1429 19.8192 19.1049 23.8571 14.1429 23.8571C9.1808 23.8571 5.14286 19.8192 5.14286 14.8571C5.14286 9.89509 9.1808 5.85714 14.1429 5.85714C19.1049 5.85714 23.1429 9.89509 23.1429 14.8571ZM33.4286 31.5714C33.4286 30.8884 33.1473 30.2254 32.6853 29.7634L25.7946 22.8728C27.4219 20.5223 28.2857 17.7098 28.2857 14.8571C28.2857 7.04241 21.9576 0.714284 14.1429 0.714284C6.32813 0.714284 0 7.04241 0 14.8571C0 22.6719 6.32813 29 14.1429 29C16.9955 29 19.808 28.1362 22.1585 26.5089L29.0491 33.3795C29.5112 33.8616 30.1741 34.1429 30.8571 34.1429C32.2835 34.1429 33.4286 32.9978 33.4286 31.5714Z" fill="#0538A1"/>
</svg>
