<svg width="76" height="105" viewBox="0 0 76 105" fill="none" xmlns="http://www.w3.org/2000/svg">
<path d="M38 37.6543L64.5576 64.2119L38 104.77L11.4424 64.2119L38 37.6543Z" fill="#86EFC0"/>
<circle cx="38" cy="38" r="38" fill="url(#paint0_linear)"/>
<g clip-path="url(#clip0)">
<path d="M27.4844 49.9249L41.7172 61L45.471 56.1404L27.4844 49.9249Z" fill="white"/>
<path d="M38.983 16H25V44.9432H44.8964V21.9384C44.8964 18.6624 42.2438 16 38.983 16Z" fill="white"/>
<path d="M33.5137 48.3743L44.2787 52.0957L45.5541 48.3743H33.5137Z" fill="white"/>
<path d="M51.4608 25.8083C50.8066 24.4622 49.6956 23.4362 48.3184 22.8918V40.3145L51.7369 30.3479C52.2529 28.8435 52.1543 27.2335 51.4608 25.8083Z" fill="white"/>
<path d="M54.682 32.3109L49.0645 48.6877L55.4577 40.4102C57.3839 37.9194 57.0158 34.3596 54.682 32.3109Z" fill="white"/>
</g>
<defs>
<linearGradient id="paint0_linear" x1="-4.91531e-09" y1="41.5185" x2="76" y2="41.5185" gradientUnits="userSpaceOnUse">
<stop stop-color="#0070C9"/>
<stop offset="1" stop-color="#0538A1"/>
</linearGradient>
<clipPath id="clip0">
<rect x="12" y="13" width="52" height="51" fill="white"/>
</clipPath>
</defs>
</svg>
